ISSS608-VAA - Take Home 3
…
6 news outlets that authored the news articles

Discovering the company that is mentioned the greatest number of times, and the author of the most news articles

Companies
News Sources

# Count the frequency of values in the "Company" column and sort by frequency
company_freq <- text_data_clean %>%
  count(Company) %>%
  mutate(Percentage = n / sum(n) * 100) %>%
  arrange(desc(n))
company_freq

# A tibble: 86 × 3
   Company                        n Percentage
   <chr>                      <int>      <dbl>
 1 Cervantes-Kramer              12       3.55
 2 Jones Group                   12       3.55
 3 Rasmussen, Nelson and King     8       2.37
 4 Alvarez PLC                    6       1.78
 5 Anderson, Brown and Green      6       1.78
 6 Bell, Reynolds and Forbes      6       1.78
 7 Blackwell, Clark and Lam       6       1.78
 8 Brown, Clarke and Martinez     6       1.78
 9 Burns Inc                      6       1.78
10 Castillo-Elliott               6       1.78
# ℹ 76 more rows
…
